<svg xmlns="http://www.w3.org/2000/svg" viewBox="0 0 24 24"
     fill="none" stroke="white" stroke-width="4" stroke-linecap="round" stroke-linejoin="round">
     <polyline points="20 6 9 17 4 12"></polyline>
</svg>
